Tidy data et tidyverse: premiers pas dans la Data Science avec R
…
Sous R (6)

Revoyons les donnes, mais sous un autre angle:

# Un coup d'oeil
censuses_tidy

## # A tibble: 1,064 x 8
##    annee    id groupage sexe  milieu population source              office
##    <dbl> <dbl> <chr>    <chr> <chr>       <dbl> <chr>               <chr> 
##  1  1968     1 0-4      Homme Urbain         NA Annuaire statistiq~ DNSI  
##  2  1968     2 5-9      Homme Urbain         NA Annuaire statistiq~ DNSI  
##  3  1968     3 10-14    Homme Urbain         NA Annuaire statistiq~ DNSI  
##  4  1968     4 15-19    Homme Urbain         NA Annuaire statistiq~ DNSI  
##  5  1968     5 20-24    Homme Urbain         NA Annuaire statistiq~ DNSI  
##  6  1968     6 25-29    Homme Urbain         NA Annuaire statistiq~ DNSI  
##  7  1968     7 30-34    Homme Urbain         NA Annuaire statistiq~ DNSI  
##  8  1968     8 35-39    Homme Urbain         NA Annuaire statistiq~ DNSI  
##  9  1968     9 40-44    Homme Urbain         NA Annuaire statistiq~ DNSI  
## 10  1968    10 45-49    Homme Urbain         NA Annuaire statistiq~ DNSI  
## # ... with 1,054 more rows
…
